{
  "project_name": "pedroermarinho.github.io",
  "version": "0.1.0",
  "description": "site",
  "icon_src": null,
  "snap_store_name": null,
  "screenshot_src": [],
  "author": "Pedro Marinho",
  "github_username": "pedroermarinho",
  "author_linkedin_username": "pedroermarinho",
  "author_twitter_username": "pedroermarinho",
  "author_website": "https://pedroermarinho.github.io/",
  "homepage": "https://github.com/pedroermarinho/pedroermarinho.github.io#readme",
  "project_demo_url": "https://github.com/pedroermarinho/pedroermarinho.github.io#readme",
  "repository_url": "https://github.com/pedroermarinho/pedroermarinho.github.io",
  "contributing_url": "https://github.com/pedroermarinho/pedroermarinho.github.io/blob/master/CONTRIBUTING.md",
  "documentation_url": "https://github.com/pedroermarinho/pedroermarinho.github.io#readme",
  "license_url": "https://github.com/pedroermarinho/pedroermarinho.github.io/blob/master/LICENSE",
  "issues_url": "https://github.com/pedroermarinho/pedroermarinho.github.io/issues",
  "license": "MIT",
  "install_command": null,
  "usage_command": null,
  "test_command": null,

  "repository": {
    "type": "git",
    "url": "git@github.com:pedroermarinho/readme-generator.git"
  },
  "credits": null,
  "keywords": [
  
  ],

  "is_github_repos": true,
  "has_start_command": true,
  "has_test_command": false
}
